…
## Loading and preprocessing the data
The data is loaded directly from activity.zip into a 17568 x 3 tibble.

```r
activity_data <- read_csv("activity.zip")
activity_data
```

```
## # A tibble: 17,568 × 3
##    steps date       interval
##    <dbl> <date>        <dbl>
##  1    NA 2012-10-01        0
##  2    NA 2012-10-01        5
##  3    NA 2012-10-01       10
##  4    NA 2012-10-01       15
##  5    NA 2012-10-01       20
##  6    NA 2012-10-01       25
##  7    NA 2012-10-01       30
##  8    NA 2012-10-01       35
##  9    NA 2012-10-01       40
## 10    NA 2012-10-01       45
## # … with 17,558 more rows
```
…
